{
    "type": "layer-tile",
    "settings": {
        "maxzoom": "13",
        "name": "Esri Ocean",
        "type": "baselayer",
        "url": "https://server.arcgisonline.com/ArcGIS/rest/services/Ocean_Basemap/MapServer/tile/{z}/{y}/{x}",
        "addtomap": false
    }
}