{
  "type": "layer-tile",
  "settings": {
    "maxzoom": "18",
    "name": "Bathymetry: Hawaii",
    "opacity": "0.9",
    "type": "tms-overlay",
    "url": "uploads/tiles/auau_hawaii/{z}/{x}/{y}.png",
    "addtomap": false
  }
}