{
    "type": "layer-tile",
    "settings": {
        "maxzoom": "12",
        "name": "Chart: Ntcl: Hawaii 2",
        "type": "baselayer",
        "url": "https://mosaic.ucsd.edu/tiles/charts/gif/19004/latest/19004_1/{z}/z{z}y{y}x{x}.gif",
        "addtomap": false
    }
}