{
  "type": "layer-tile",
  "settings": {
    "maxzoom": "18",
    "name": "Ocean Markers",
    "type": "overlay",
    "url": "https://tiles.openseamap.org/seamark/{z}/{x}/{y}.png",
    "addtomap": false
  }
}