{
  "type": "layer-tile",
  "settings": {
    "maxzoom": "18",
    "name": "Rain overlay",
    "opacity": "1.0",
    "type": "overlay",
    "url": "https://a.maps.owm.io/map/precipitation_new/{z}/{x}/{y}?appid=b1b15e88fa797225412429c1c50c122a1",
    "addtomap": false
  }
}